{"frames": [

{
	"filename": "cloud_001.png",
	"frame": {"x":1,"y":215,"w":163,"h":112},
	"rotated": false,
	"trimmed": false,
	"spriteSourceSize": {"x":0,"y":0,"w":163,"h":112},
	"sourceSize": {"w":163,"h":112}
},
{
	"filename": "cloud_002.png",
	"frame": {"x":166,"y":215,"w":153,"h":109},
	"rotated": false,
	"trimmed": false,
	"spriteSourceSize": {"x":0,"y":0,"w":153,"h":109},
	"sourceSize": {"w":153,"h":109}
},
{
	"filename": "cloud_003.png",
	"frame": {"x":274,"y":1,"w":207,"h":153},
	"rotated": false,
	"trimmed": false,
	"spriteSourceSize": {"x":0,"y":0,"w":207,"h":153},
	"sourceSize": {"w":207,"h":153}
},
{
	"filename": "cloud_004.png",
	"frame": {"x":1,"y":1,"w":271,"h":212},
	"rotated": false,
	"trimmed": false,
	"spriteSourceSize": {"x":0,"y":0,"w":271,"h":212},
	"sourceSize": {"w":271,"h":212}
},
{
	"filename": "cloud_005.png",
	"frame": {"x":321,"y":156,"w":173,"h":131},
	"rotated": false,
	"trimmed": false,
	"spriteSourceSize": {"x":0,"y":0,"w":173,"h":131},
	"sourceSize": {"w":173,"h":131}
}],
"meta": {
	"app": "http://www.codeandweb.com/texturepacker",
	"version": "1.0",
	"image": "clouds.png",
	"format": "RGBA8888",
	"size": {"w":495,"h":328},
	"scale": "1",
	"smartupdate": "$TexturePacker:SmartUpdate:50287722f6b14fea80df14f5490db48a:dc3eb7523b2bf371afe02ae872bd80b2:e96b5453eed6fb7cc3a8e55168758fa4$"
}
}
