{"frames": [

{
	"filename": "human3_001.png",
	"frame": {"x":1,"y":79,"w":13,"h":37},
	"rotated": false,
	"trimmed": false,
	"spriteSourceSize": {"x":0,"y":0,"w":13,"h":37},
	"sourceSize": {"w":13,"h":37}
},
{
	"filename": "human3_002.png",
	"frame": {"x":1,"y":40,"w":14,"h":37},
	"rotated": false,
	"trimmed": false,
	"spriteSourceSize": {"x":0,"y":0,"w":14,"h":37},
	"sourceSize": {"w":14,"h":37}
},
{
	"filename": "human3_003.png",
	"frame": {"x":1,"y":1,"w":19,"h":37},
	"rotated": false,
	"trimmed": false,
	"spriteSourceSize": {"x":0,"y":0,"w":19,"h":37},
	"sourceSize": {"w":19,"h":37}
},
{
	"filename": "human3_004.png",
	"frame": {"x":16,"y":79,"w":11,"h":36},
	"rotated": false,
	"trimmed": false,
	"spriteSourceSize": {"x":0,"y":0,"w":11,"h":36},
	"sourceSize": {"w":11,"h":36}
}],
"meta": {
	"app": "http://www.codeandweb.com/texturepacker",
	"version": "1.0",
	"image": "human3.png",
	"format": "RGBA8888",
	"size": {"w":28,"h":117},
	"scale": "1",
	"smartupdate": "$TexturePacker:SmartUpdate:a9a713f23f8a1a6ffc49b67aa7e023a4:9a8c9bd518b2aa1590636b7d8da87d48:5ab0eb3a8ad3844a5647adcd76b76f3e$"
}
}
